<?xml version="1.0" encoding="UTF-8"?>
<!-- Generator: Adobe Illustrator 19.0.0, SVG Export Plug-In . SVG Version: 6.00 Build 0)  -->
<svg width="16" height="16" version="1.1" viewBox="0 0 16 16" xml:space="preserve" xmlns="http://www.w3.org/2000/svg">
















<g transform="matrix(.5 0 0 .5 .0005117 -9.2123e-8)" stroke-width=".054688"><g fill="#f55"><path d="m15.861 7.1882c-1.2938 0.90995-2.7601 1.9413-3.5458 3.6476-1.3647 2.9769 2.7925 6.2241 2.9701 6.3609 0.04129 0.03177 0.09073 0.04763 0.14 0.04763 0.05234 0 0.10473-0.01788 0.14727-0.05354 0.08252-0.06902 0.10593-0.18627 0.05638-0.28175-0.01504-0.02898-1.5072-2.9274-1.4518-5.0068 0.01963-0.72423 1.0332-1.5458 2.1061-2.4156 0.98274-0.79668 2.0967-1.6996 2.7485-2.7559 1.4308-2.3251-0.15947-4.6114-0.17571-4.6342-0.063164-0.088703-0.17976-0.1208-0.27945-0.07711-0.09959 0.043969-0.15477 0.15165-0.13202 0.25813 0.0032 0.015149 0.31248 1.527-0.54808 3.0847-0.35448 0.64367-1.1335 1.1915-2.0355 1.826z"/><path d="m21.312 8.2135c0.09127-0.068742 0.11807-0.19414 0.06289-0.29422-0.05529-0.10008-0.1756-0.14421-0.28246-0.10363-0.21979 0.083563-5.3821 2.0735-5.3821 4.4778 0 1.6574 0.70799 2.533 1.2249 3.1724 0.20278 0.2508 0.37784 0.46736 0.43553 0.65226 0.16242 0.53282-0.22236 1.4959-0.38418 1.822-0.04665 0.09373-0.02379 0.20738 0.05556 0.27584 0.04287 0.03702 0.09642 0.05584 0.15001 0.05584 0.04561 0 0.09144-0.01356 0.13103-0.04113 0.08876-0.06169 2.1693-1.5327 1.7962-3.3049-0.13902-0.67364-0.47004-1.1658-0.76213-1.6002-0.45248-0.67293-0.7793-1.159-0.2835-2.0567 0.58089-1.0472 3.2116-3.0354 3.2383-3.0553z"/></g><g fill="#73a1fb"><path d="m7.8743 18.31c-0.088484 0.26496-0.046703 0.52779 0.1207 0.76032 0.55962 0.77695 2.5419 1.2047 5.5819 1.2047h3.83e-4c0.41191 0 0.84678-0.0081 1.2922-0.02406 4.8604-0.17396 6.6631-1.6882 6.7375-1.7525 0.08105-0.07016 0.1027-0.18698 0.05234-0.28148-0.05042-0.09445-0.15909-0.14191-0.26294-0.11331-1.7118 0.46736-4.9081 0.63328-7.1251 0.63328-2.4808 0-3.7442-0.17872-4.0535-0.31068 0.1587-0.21793 1.1376-0.60709 2.3506-0.84569 0.11594-0.02275 0.19562-0.12983 0.18413-0.24741-0.01148-0.11758-0.11025-0.20727-0.22843-0.20727-0.71105 0-4.277 0.05709-4.6497 1.1841z"/><path d="m24.138 16.75c-1.0025 0-1.9531 0.50247-1.9931 0.52374-0.0927 0.04966-0.13973 0.15597-0.1143 0.25813 0.02554 0.10199 0.11725 0.17369 0.22241 0.1738 0.02127 0 2.1384 0.01734 2.3301 1.227 0.16986 1.0435-2.0032 2.7344-2.8548 3.2979-0.09199 0.06087-0.1277 0.17845-0.08498 0.28016 0.03637 0.08657 0.12064 0.14071 0.21153 0.14071 0.01586 0 0.03194-0.0016 0.04791-5e-3 0.20212-0.04326 4.9441-1.0882 4.4427-3.8491-0.30587-1.692-1.3693-2.0472-2.2075-2.0472z"/><path d="m20.886 21.893c0.01651-0.08843-0.02029-0.17839-0.0939-0.23007l-1.137-0.79642c-0.05545-0.03883-0.12551-0.05102-0.19059-0.0338-0.01187 3e-3 -1.2009 0.3156-2.9272 0.50728-0.68512 0.07684-1.4525 0.11741-2.2193 0.11741-1.7258 0-2.8543-0.20278-3.0186-0.35153-0.02177-0.04178-0.01487-0.06076-0.01099-0.07131 0.02986-0.08302 0.18988-0.18167 0.29302-0.22072 0.11392-0.04216 0.17533-0.16587 0.13989-0.28202-0.03533-0.11632-0.15515-0.18474-0.27338-0.15635-1.1406 0.27524-1.6983 0.66013-1.6577 1.144 0.072078 0.85783 2.059 1.2981 3.7387 1.4145 0.24156 0.01651 0.5028 0.02488 0.77629 0.02488h4.38e-4c2.7931 0 6.3738-0.87637 6.4096-0.88528 0.08745-0.02133 0.15411-0.09193 0.17068-0.18052z"/><path d="m12.314 23.734c0.08613-0.056 0.1243-0.16248 0.09373-0.26053-0.03046-0.09805-0.12217-0.16248-0.2252-0.16111-0.15285 4e-3 -1.4957 0.06464-1.5897 0.91957-0.02844 0.2555 0.04474 0.48896 0.2176 0.69377 0.48213 0.57138 1.7836 0.91098 3.978 1.0382 0.2596 0.01559 0.5233 0.02341 0.78389 0.02341 2.7899 0 4.6688-0.87352 4.7475-0.91071 0.07629-0.03609 0.1266-0.11107 0.13109-0.19529 0.0045-0.08422-0.03757-0.16412-0.10954-0.20814l-1.4369-0.87719c-0.04988-0.03041-0.10954-0.04047-0.16642-0.02882-0.0091 0.0019-0.92143 0.19113-2.2983 0.37806-0.26053 0.03544-0.5868 0.05343-0.96961 0.05343-1.3754 0-2.9052-0.22471-3.1986-0.37188-0.0043-0.02745 0.0011-0.06234 0.04238-0.09275z"/><path d="m14.272 28.625c6.3905-0.0054 9.8203-1.1419 10.481-1.857 0.2339-0.25298 0.25916-0.49252 0.23931-0.64898-0.04911-0.385-0.39982-0.6207-0.43958-0.6463-0.09592-0.06169-0.22466-0.04556-0.29947 0.04074-0.07465 0.0863-0.0764 0.21241-0.0015 0.29865 0.04031 0.05184 0.0636 0.13863-0.05425 0.25659-0.26414 0.2467-2.9282 0.99553-7.364 1.2205-0.60763 0.03156-1.245 0.04763-1.8942 0.04774-3.9716 0-6.8782-0.54403-7.2597-0.861 0.14705-0.21131 1.1752-0.5489 2.2685-0.73987 0.12321-0.02149 0.20645-0.13759 0.18736-0.26119-0.01909-0.12354-0.133-0.20858-0.25752-0.19245-0.030844 0.0042-0.13552 0.01045-0.2567 0.01788-1.804 0.11014-3.8888 0.35563-3.9976 1.2852-0.033031 0.28323 0.051133 0.54037 0.25025 0.76415 0.48721 0.54742 1.8876 1.2753 8.3977 1.2753 1.09e-4 1.09e-4 1.09e-4 1.09e-4 2.19e-4 1.09e-4z"/><path d="m26.008 26.969c-0.09034-0.04178-0.19709-0.02067-0.26447 0.05206-0.0094 0.01012-0.97016 1.0148-3.859 1.6048-1.1059 0.22159-3.1819 0.33398-6.1702 0.33398-2.9939 0-5.8427-0.1178-5.8711-0.119-0.119-0.0058-0.22077 0.08072-0.23696 0.19786-0.016242 0.11703 0.059227 0.22739 0.17413 0.25474 0.029641 7e-3 3.0152 0.70645 7.0973 0.70645 1.9579 0 3.8631-0.15898 5.6628-0.47277 3.3557-0.58827 3.5906-2.2522 3.599-2.3227 0.0117-0.0986-0.04134-0.19354-0.13152-0.23532z"/></g></g>
</svg>
