<!--
  - Copyright 2015-2021 the original author or authors.
  -
  -     Licensed under the Apache License, Version 2.0 (the "License");
  -     you may not use this file except in compliance with the License.
  -     You may obtain a copy of the License at
  -
  -       https://www.apache.org/licenses/LICENSE-2.0
  -
  -     Unless required by applicable law or agreed to in writing, software
  -     distributed under the License is distributed on an "AS IS" BASIS,
  -     WITHOUT WARRANTIES OR CONDITIONS OF ANY KIND, either express or implied.
  -     See the License for the specific language governing permissions and
  -     limitations under the License.
  -->

<svg width="16" height="16" viewBox="0 0 16 16" fill="none" xmlns="http://www.w3.org/2000/svg">
<g id="kotlin_native">
<g id="kotlin_native_2">
<path id="Path" fill-rule="evenodd" clip-rule="evenodd" d="M14 15V16H10V15H8V14H10V13H8V12H10V11H8V10H10V9H14V10H16V11H14V12H16V13H14V14H16V15H14Z" fill="#9AA7B0"/>
</g>
<path id="Vector" d="M7 8.8L15 1H1V15H7V8.8Z" fill="#B99BF8"/>
</g>
</svg>
