<!--
  - Copyright 2015-2021 the original author or authors.
  -
  -     Licensed under the Apache License, Version 2.0 (the "License");
  -     you may not use this file except in compliance with the License.
  -     You may obtain a copy of the License at
  -
  -       https://www.apache.org/licenses/LICENSE-2.0
  -
  -     Unless required by applicable law or agreed to in writing, software
  -     distributed under the License is distributed on an "AS IS" BASIS,
  -     WITHOUT WARRANTIES OR CONDITIONS OF ANY KIND, either express or implied.
  -     See the License for the specific language governing permissions and
  -     limitations under the License.
  -->

<svg width="16" height="16" viewBox="0 0 16 16" fill="none" xmlns="http://www.w3.org/2000/svg">
<g id="kotlin_gradle_script">
<g id="&#226;&#140;&#152;/modifier/kotlin">
<path id="&#226;&#140;&#152;/modifier/kotlin_2" d="M16 16H9V9H16L12.4 12.4L16 16Z" fill="#B99BF8"/>
</g>
<g id="gradleFile">
<path id="Combined Shape" fill-rule="evenodd" clip-rule="evenodd" d="M11.3604 3.13297C12.2871 2.26772 13.7327 2.29251 14.6291 3.18901C15.3645 3.92434 16.1839 5.75506 14.174 8H8V11.8836C7.34792 11.9939 6.82763 12.5178 6.73846 13.1929C6.72441 13.3044 6.62997 13.3882 6.51758 13.389H5.50549C5.39283 13.389 5.29797 13.3047 5.28461 13.1929C5.18401 12.4313 4.53469 11.8621 3.76648 11.8621C2.99827 11.8621 2.34895 12.4313 2.24835 13.1929C2.23794 13.3108 2.1376 13.4003 2.01923 13.3973H0.984064C0.876572 13.3967 0.784592 13.3199 0.764834 13.2143C0.181317 10.1747 1.25934 7.77473 3.01483 6.52528L3.93297 8.10934C4.15349 8.48927 4.56016 8.72246 4.99945 8.72088C5.20783 8.72134 5.41281 8.66797 5.5945 8.56594L6.02472 8.32528H6.03956C6.54724 8.00931 7.02602 7.64912 7.47033 7.2489C7.51609 7.2056 7.54117 7.14482 7.53929 7.08185C7.5374 7.01888 7.50871 6.95971 7.46044 6.91923C7.36925 6.84624 7.23852 6.85043 7.1522 6.92912C6.73006 7.3038 6.27677 7.64184 5.79725 7.93956L5.37198 8.17692L5.39011 8.16374L5.36703 8.17692C5.00128 8.38297 4.5378 8.2557 4.32857 7.89176L3.35769 6.21539C3.24954 6.03056 3.22363 5.80891 3.28626 5.60412C3.34889 5.39934 3.49433 5.23009 3.68736 5.13736C6.99428 3.56099 9.21976 4.69386 10.8712 5.5345C12.0448 6.13194 12.9285 6.58178 13.7044 5.80659C14.2302 5.3103 14.271 4.48761 13.7968 3.94178C13.3226 3.39594 12.5023 3.32128 11.9374 3.77253C11.8483 3.83997 11.7232 3.83153 11.644 3.75275L11.3604 3.46264C11.3153 3.4197 11.2897 3.36011 11.2897 3.2978C11.2897 3.23549 11.3153 3.17591 11.3604 3.13297ZM10.0599 7.09231L10.7802 7.4533V7.45495C10.9513 7.32835 11.0107 7.09953 10.923 6.90566C10.8352 6.7118 10.6241 6.60548 10.4161 6.65046C10.2081 6.69544 10.0597 6.87951 10.0599 7.09231Z" fill="#9AA7B0" fill-opacity="0.8"/>
</g>
</g>
</svg>
